^C:\USERS\HARRY'S MEME MACHINE\DOCUMENTS\CODE-DESIGN\HASHING\HASHING\DEBUG\HASHING.OBJ|C:\USERS\HARRY'S MEME MACHINE\DOCUMENTS\CODE-DESIGN\HASHING\HASHING\DEBUG\MAIN.OBJ|C:\USERS\HARRY'S MEME MACHINE\DOCUMENTS\CODE-DESIGN\HASHING\HASHING\DEBUG\STDAFX.OBJ
C:\USERS\HARRY'S MEME MACHINE\DOCUMENTS\CODE-DESIGN\HASHING\DEBUG\HASHING.ILK
C:\USERS\HARRY'S MEME MACHINE\DOCUMENTS\CODE-DESIGN\HASHING\DEBUG\HASHING.EXE
C:\USERS\HARRY'S MEME MACHINE\DOCUMENTS\CODE-DESIGN\HASHING\DEBUG\HASHING.PDB
